
{
    "title": "How a Simple Redirector can be a Potent Weapon in the Fight Against Phishing",
        "reference_urls": ["https://www.riskiq.com/blog/labs/simple-redirector/",
        ],
        "guid": "2fe3c253-9874-4984-8975-4a0f3d64c81e",
        "summary": "Every piece of data we collect helps train and optimize the accuracy of our models—even a simple redirector that leads to a run-of-the-mill phishing page.
During the loading process, RiskIQ's web crawlers gather a web page's full document object model (DOM) and the page sequence of a crawl.
In this case, the phishing page was detected immediately by our machine-learning model.
In the course of reviewing pages, a RiskIQ data scientist came across the pages above and labeled each one—a phishing page, and a redirector to a phishing page.
Contact us for more information about how RiskIQ collects internet data and uses it to automate and optimize threat detection.",
        "published_date": "2018-04-24 00:00:00+00:00",
        "authors": "[]",
        "tags": ['pages', 'riskiq', 'simple', 'page', 'detection', 'data', 'redirector', 'web', 'analysis', 'threat', 'potent', 'weapon', 'model', 'fight', 'phishing']  
        ,
        "content": "",
        "indicators": [
        