
{
    "title": "First Activities of Cobalt Group in 2018: Spear Phishing Russian Banks",
        "reference_urls": ["https://www.riskiq.com/blog/labs/cobalt-group-spear-phishing-russian-banks/",
        ],
        "guid": "b86edcb7-eb6d-440f-b0a6-06adc03b68f8",
        "summary": "Last year November, we documented activities of the Cobalt Group using CVE-2017-11882.
Today, on January 16th, the first wave of spear phishing emails were delivered to the inboxes of Russian banks.
The emails were quite plain with only a single question in the body and an attachment with the name once.rtf.
This stager will initiate connectivity with the C2 server to install the Cobalt Strike implant.
InfrastructureAs shown, the stager beacons out to helpdesk-oracle.com, which was registered by a person using the email address krystianwalczak@yandex.com.",
        "published_date": "2018-01-16 00:00:00+00:00",
        "authors": "[]",
        "tags": ['activities', 'group', 'script', 'emails', 'russian', 'stager', 'powershell', 'cve201711882', 'wave', '2018', 'email', 'spear', 'banks', 'cobalt', 'stage', 'phishing', 'iocs']  
        ,
        "content": "",
        "indicators": [
        
                                   {
                                     "type": "ip",
                                     "value": "46.21.147.61",
                                     "enterprise": false
                                  },
                                   {
                                     "type": "ip",
                                     "value": "46.102.152.157",
                                     "enterprise": false
                                  },
                                   {
                                     "type": "ip",
                                     "value": "85.204.74.117",
                                     "enterprise": false
                                  },
                                   {
                                     "type": "ip",
                                     "value": "46.21.147.61",
                                     "enterprise": false
                                  },
                                   {
                                     "type": "ip",
                                     "value": "139.60.163.10",
                                     "enterprise": false
                                   },
                                   {
                                         "type": "domain",
                                         "value": "u0417u0430u044fu0432u043bu0435u043du0438u0435.rtf",
                                         "enterprise": false
                                      },
                                       {
                                         "type": "domain",
                                         "value": "bankosantantder.com",
                                         "enterprise": false
                                      },
                                       {
                                         "type": "domain",
                                         "value": "billing-cbr.ru",
                                         "enterprise": false
                                      },
                                       {
                                         "type": "domain",
                                         "value": "helpdesk-oracle.com",
                                         "enterprise": false
                                      },
                                       {
                                         "type": "domain",
                                         "value": "help-desc-me.com",
                                         "enterprise": false
                                      },
                                       {
                                    