
{
    "title": "RiskIQ Finds Malvertising on the Rise Once Again",
        "reference_urls": ["https://www.riskiq.com/blog/labs/malvertising-on-the-rise-once-again/",
        ],
        "guid": "1050a1df-20e4-4eec-8354-59a9e06bea28",
        "summary": "Malvertising was once again on the rise in 2016, increasing 132% over 2015 according to RiskIQ's 2016 Malvertising Report.
Malvertising is particularly effective, as it’s difficult to detect and take down because malicious ads are delivered through ad networks and not resident on web pages.
Meanwhile, partly fueled by the looming threat of malvertising, Ad blocking in the US will continue to temper the growth of digital advertising.
As you'll see in the 2016 Malvertising Report, these improvements have increased our ability to identify injections (compromised legitimate assets), malicious distribution systems, scams (by a large degree), and scareware/browser lockers.
Download RiskIQ's 2016 Malvertising Report for the entire breakdown of the malvertising incidents found by RiskIQ in 2016, and how they compare to 2015:",
        "published_date": "2017-01-30 00:00:00+00:00",
        "authors": "[]",
        "tags": ['ad', 'riskiq', '2016', 'finds', 'threat', 'malvertising', 'ads', 'million', 'rise', 'report', 'malicious', 'internet']  
        ,
        "content": "",
        "indicators": [
        