
{
    "title": "Magecart Threat Actors are Reshipping Items Purchased with Stolen Cards via Mules in the U.S.",
        "reference_urls": ["https://www.riskiq.com/blog/labs/magecart-reshipping-mules/",
        ],
        "guid": "5568ee08-c209-4e3a-9c7e-dc1a134e4956",
        "summary": "Magecart is back, and the operation is more elaborate than we thought, involving physical shipping companies with mules operating in the United States.
Credit card data is a hot commodity in the criminal underworld of the internet—stolen card data is readily available, and used to fund criminal enterprises of all kinds.
Typically, when people think of credit card theft, they think of skimming, point-of-sale devices infected with malware, and large-scale data breaches.
This stolen data can be packaged and sold as CVV dumps, on websites where transactions involving stolen credit card data take place.
Online stores remain one of the easiest ways to capture payment card data, so we don’t anticipate threats like this to go away anytime soon.",
        "published_date": "2017-07-12 00:00:00+00:00",
        "authors": "[]",
        "tags": ['reshipping', 'credit', 'riskiq', 'threat', 'mules', 'items', 'card', 'data', 'stolen', 'actors', 'javascript', 'magecart', 'cards', 'websites', 'purchased']  
        ,
        "content": "",
        "indicators": [
        
                                   {
                                     "type": "ip",
                                     "value": "209.126.118.168",
                                     "enterprise": false
                                  },
                                   {
                                