
{
    "title": "Magecart Supply-chain Frenzy Continues With AppLixir, RYVIU, OmniKick, eGain, AdMaxim, CloudCMS & Picreel",
        "reference_urls": ["https://www.riskiq.com/blog/labs/cloudcms-picreel-magecart/",
        ],
        "guid": "55f653f1-ec6e-451a-a3f5-cc0d815cc61d",
        "summary": "Last weekend, security researchers surfaced new supply-chain attacks involving Magecart web-skimmers placed on several web-based suppliers, including AdMaxim, CloudCMS, and Picreel.
Magecart actors compromised and modified multiple scripts used for Picreel.
You can spot the beginning of the skimmer at the bottom (skimmer highlighted in red):The top part of the skimmer contains the broken JavaScript.
Here’s an example of the modified SDK loaded with the skimmer (skimmer highlighted in red):We observed only this single resource to be compromised at this time.
Below is an example of the injected skimmer (highlighted in red).",
        "published_date": "2019-05-15 00:00:00+00:00",
        "authors": "[]",
        "tags": ['compromised', 'used', 'picreel', 'supplychain', 'applixir', 'attackers', 'omnikick', 'continues', 'script', 'cloudcms', 'scripts', 'ryviu', 'skimmer', 'observed', 'highlighted', 'egain', 'frenzy', 'magecart', 'attack']  
        ,
        "content": "",
        "indicators": [
        
                                       {
                                         "type": "domain",
                                         "value": "min.js",
                                         "enterprise": false
                                      },
                                       {
                                         "type": "domain",
                                         "value": "min.js",
                                         "enterprise": false
                                      },
                                       {
                                         "type": "domain",
                                         "value": "min.js",
                                         "enterprise": false
                                      },
                                       {
                                         "type": "domain",
                                         "value": "min.js",
                                         "enterprise": false
                                      },
                                       {
                                         "type": "domain",
                                         "value": "sites.js",
                                         "enterprise": false
                                      },
                                       {
                                         "type": "domain",
                                         "value": "min.js",
                                         "enterprise": false
                                      },
                                       {
                                         "type": "domain",
                                         "value": "min.js",
                                         "enterprise": false
                                      },
                                       {
                                         "type": "domain",
                                         "value": "form.js",
                                         "enterprise": false
                                      },
                                       {
                                         "type": "domain",
                                         "value": "subscribe.js",
                                         "enterprise": false
                                      },
                                       {
                                         "type": "domain",
                                         "value": "min.js",
                                         "enterprise": false
                                      },
                                       {
                                         "type": "domain",
                                         "value": "main.js",
                                         "enterprise": false
                                      },
                                       {
                                         "type": "domain",
                                         "value": "min.js",
                                         "enterprise": false
                                      },
                                       {
                                         "type": "domain",
                                         "value": "appear.js",
                                         "enterprise": false
                                      },
                                       {
                                         "type": "domain",
                                         "value": "count-to.js",
                                         "enterprise": false
                                      },
                                       {
                                         "type": "domain",
                                         "value": "countdown.js",
                                         "enterprise": false
                                      },
                                       {
                                         "type": "domain",
                                         "value": "directions.js",
                                         "enterprise": false
                                      },
                                       {
                                         "type": "domain",
                                         "value": "flexslider.js",
                                         "enterprise": false
                                      },
                                       {
                                         "type": "domain",
                                         "value": "google-map.js",
                                         "enterprise": false
                                      },
                                       {
                                         "type": "domain",
                                         "value": "infobox.js",
                                         "enterprise": false
                                      },
                                       {
                                         "type": "domain",
                                         "value": "magnific-popup.js",
                                         "enterprise": false
                                      },
                                       {
                                         "type": "domain",
                                         "value": "nicescroll.js",
                                         "enterprise": false
                                      },
                                       {
                                         "type": "domain",
                                         "value": "pace.js",
                                         "enterprise": false
                                      },
                                       {
                                         "type": "domain",
                                         "value": "slick.js",
                                         "enterprise": false
                                      },
                                       {
                                         "type": "domain",
                                         "value": "validate.js",
                                         "enterprise": false
                                      },
                                       {
                                         "type": "domain",
                                         "value": "wow.js",
                                         "enterprise": false
                                      },
                                       {
                                    