
{
    "title": "Pivoting on the Data: Who Tracks the Trackers?",
        "reference_urls": ["https://www.riskiq.com/blog/labs/tracking-trackers/",
        ],
        "guid": "cdb903c5-065c-44ec-b349-f25750b58dae",
        "summary": "A Google Analytics ID Tells a Different Kind of StoryDifferent trackers are used in various locations.
For this particular example, we’ll use Steam’s Google Analytics Tracking ID as a tracker:From PassiveTotal, we can see that there have been 629 hosts observed using this Google Analytics Tracking ID tracker on their page.
As you can see above, numerous malicious sites have the Google Analytics Tracking ID on them.
In addition to using your trackers to find phishing pages, once you have identified attacker-owned infrastructure such as the domains and IPs they’re using to serve phishing pages, you can then check to see if they have implemented trackers of their own.
RiskIQ has data about trackers from includes IDs from providers like Google, Yandex, Mixpanel, New Relic, Clicky, and more.",
        "published_date": "2017-03-07 00:00:00+00:00",
        "authors": "[]",
        "tags": ['pages', 'analytics', 'riskiq', 'data', 'tracking', 'id', 'tracks', 'google', 'pivoting', 'trackers', 'online', 'phish', 'phishing']  
        ,
        "content": "",
        "indicators": [
        