
{
    "title": "Networks of Scammy Cryptocurrency Sites Promise Payday that Never Comes",
        "reference_urls": ["https://www.riskiq.com/blog/labs/scammy-cryptocurrency-sites/",
        ],
        "guid": "b6592396-2a51-4d8d-b84c-96befdf27c4f",
        "summary": "]biz is only one of a network of sites operated by a single individual or group, all sharing the cryptocurrency theme.
One of these sites asks users to send .5 - 5 ETH (Ethereum) and promises a return of 5 - 50 ETH.
]bizStay Safe, Know Your Digital FootprintThe cryptocurrency threat landscape is dangerous for users, but brands are also at risk.
RiskIQ Digital Footprint has you covered by continuously discovering an inventory of your externally-facing digital assets and managing risks across your digital attack surface.
If you would like more information about RiskIQ Digital Footprint Enterprise can help you with exposure to cryptominers, call us at 888-415-4447 or email us at sales@riskiq.net.",
        "published_date": "2018-04-13 00:00:00+00:00",
        "authors": "[]",
        "tags": ['users', 'cryptocurrency', 'riskiq', 'threat', 'exchange', 'promise', 'scammy', 'domains', 'networks', 'payday', 'comes', 'digital', 'coins', 'sites', 'money']  
        ,
        "content": "",
        "indicators": [
        
                                   {
                                     "type": "ip",
                                     "value": "31.31.196.94",
                                     "enterprise": false
                                  },
                                   {
                                     "type": "ip",
                                     "value": "31.31.196.94",
                                     "enterprise": false
                                  },
                                   {
                                     "type": "ip",
                                     "value": "31.31.196.94",
                                     "enterprise": false
                                  },
                                   {
                                