
{
    "title": "Cyber Threat Hunting Close to Home: Escaping the RIG EK with Passive DNS",
        "reference_urls": ["https://www.riskiq.com/blog/labs/threat-hunting-with-passive-dns/",
        ],
        "guid": "44f9d29f-2bda-4cf8-b52a-b38f583324cf",
        "summary": "Sometimes cyber threat hunting brings you to familiar territory.
But even though we're hunting cyber threats all over the world, sometimes compromises hit a little close to home.
And while hunting cyber threats for one of our clients, a hostname we identified serving RIG exploit kit (EK) looked a bit familiar–it belonged to the very same local escape room business.
Cyber threat actors have compromised his GoDaddy account and created a new A record to which to redirect traffic.
As you can see in the screenshot below from PassiveTotal, RiskIQ's free cyber threat research tool, the cyber threat actors have gone through and added new A records to the registrant’s existing domains with which to host RIG EK.",
        "published_date": "2016-11-11 00:00:00+00:00",
        "authors": "[]",
        "tags": ['escaping', 'hunting', 'passive', 'threat', 'close', 'data', 'rig', 'world', 'dns', 'threats', 'actors', 'whois', 'domain', 'cyber', 'domains', 'pdns', 'ek']  
        ,
        "content": "",
        "indicators": [
        